{
    "appenders": [
        {
            "type": "console"
        },
        {
            "type": "file",
            "filename": "logs/hive-main-log.log",
            "maxLogSize": 20480,
            "backups": 3,
            "level": "ALL"
        }
    ],
    "replaceConsole": false
}